VHDL_modelsim/uart_w16/uart.vcd
$date
  Sat Apr 11 22:43:04 2026
$end
$version
  GHDL v0
$end
$timescale
  1 fs
$end
$var reg 1 ! clk $end
$var reg 1 " reset $end
$var reg 1 # start $end
$var reg 1 $ txd $end
$var reg 1 % done $end
$var reg 8 & txdata[7:0] $end
$scope module uart_inst $end
$var reg 1 ' clk $end
$var reg 1 ( start $end
$var reg 1 ) reset $end
$var reg 8 * txdata[7:0] $end
$var reg 1 + txd $end
$var reg 1 , done $end
$comment state is not handled $end
$comment next_state is not handled $end
$var integer 32 - count_reg $end
$var integer 32 . count_next $end
$upscope $end
$enddefinitions $end
#0
0!
1"
0#
1$
1%
b01011001 &
0'
0(
1)
b01011001 *
1+
1,
b0 -
b0 .
#5000000
1!
1'
#10000000
0!
0'
#15000000
1!
1'
#20000000
0!
0'
#25000000
1!
1'
#30000000
0!
0"
0'
0)
#35000000
1!
1'
#40000000
0!
1#
0'
1(
1,
#45000000
1!
0$
0%
1'
0+
0,
#50000000
0!
0#
0'
0(
0+
#55000000
1!
1$
1'
1+
b1 .
#60000000
0!
0'
#65000000
1!
0$
1'
0+
b1 -
b10 .
#70000000
0!
0'
#75000000
1!
1'
0+
b10 -
b11 .
#80000000
0!
0'
#85000000
1!
1$
1'
1+
b11 -
b100 .
#90000000
0!
0'
#95000000
1!
1'
b100 -
b101 .
#100000000
0!
0'
#105000000
1!
0$
1'
0+
b101 -
b110 .
#110000000
0!
0'
#115000000
1!
1$
1'
1+
b110 -
b111 .
#120000000
0!
0'
#125000000
1!
0$
1'
0+
b111 -
b0 .
#130000000
0!
0'
#135000000
1!
1'
0+
b0 -
#140000000
0!
0'
#145000000
1!
1$
1%
1'
1+
1,
